fpga/sim/fsm.vcd
$date
	Sun Sep 14 14:53:46 2025
$end
$version
	Questa Lattice OEM Edition 2024.2
$end
$timescale
	1ps
$end

$scope module testbench_state_fsm $end
$var reg 1 ! clk $end
$var reg 1 " reset $end
$var reg 1 # reset2 $end
$var reg 4 $ row_stable [3:0] $end
$var reg 4 % row [3:0] $end
$var reg 4 & col [3:0] $end
$var reg 12 ' pressed_value [11:0] $end
$var reg 2 ( state [1:0] $end
$var reg 2 ) next_state [1:0] $end
$var reg 5 * first [4:0] $end
$var reg 5 + second [4:0] $end
$var reg 3 , state_on [2:0] $end
$var reg 1 - allowed $end
$var reg 1 . enable_delay $end
$var reg 1 / enable_scan $end
$var reg 1 0 high $end

$scope module dut $end
$var wire 1 1 clk $end
$var wire 1 2 reset $end
$var wire 1 3 high $end
$var wire 1 4 row_stable [3] $end
$var wire 1 5 row_stable [2] $end
$var wire 1 6 row_stable [1] $end
$var wire 1 7 row_stable [0] $end
$var wire 1 8 row [3] $end
$var wire 1 9 row [2] $end
$var wire 1 : row [1] $end
$var wire 1 ; row [0] $end
$var wire 1 < col [3] $end
$var wire 1 = col [2] $end
$var wire 1 > col [1] $end
$var wire 1 ? col [0] $end
$var wire 1 @ pressed_value [11] $end
$var wire 1 A pressed_value [10] $end
$var wire 1 B pressed_value [9] $end
$var wire 1 C pressed_value [8] $end
$var wire 1 D pressed_value [7] $end
$var wire 1 E pressed_value [6] $end
$var wire 1 F pressed_value [5] $end
$var wire 1 G pressed_value [4] $end
$var wire 1 H pressed_value [3] $end
$var wire 1 I pressed_value [2] $end
$var wire 1 J pressed_value [1] $end
$var wire 1 K pressed_value [0] $end
$var reg 2 L state [1:0] $end
$var reg 2 M next_state [1:0] $end
$var reg 5 N first [4:0] $end
$var reg 5 O second [4:0] $end
$var reg 1 P allowed $end
$var reg 1 Q enable_delay $end
$var reg 1 R reset2 $end
$var reg 1 S enable_scan $end
$var reg 3 T state_on [2:0] $end
$var reg 2 U debounce_next_state [1:0] $end
$var reg 5 V first_reg [4:0] $end
$var reg 5 W second_reg [4:0] $end
$var reg 4 X num_reg [3:0] $end
$var reg 4 Y captured_row [3:0] $end
$var reg 4 Z captured_col [3:0] $end
$var reg 1 [ captured_reg $end
$upscope $end
$upscope $end
$enddefinitions $end
#0
$dumpvars
0!
0"
0#
b0 $
bx %
b0 &
b0 '
b0 (
b0 )
b11111 *
b11111 +
b1 ,
1-
0.
1/
00
b0 L
b0 M
b11111 N
b11111 O
1P
0Q
0R
1S
b1 T
b0 U
b11111 V
b11111 W
b0 X
b0 Y
b0 Z
0[
0K
0J
0I
0H
0G
0F
0E
0D
0C
0B
0A
0@
0?
0>
0=
0<
x;
x:
x9
x8
07
06
05
04
03
02
01
$end
#10000
1!
11
#20000
0!
01
#22000
1"
12
#30000
1!
11
1[
b10 U
0P
1R
0S
b0 T
1S
1P
0R
b1 T
#40000
0!
01
#44000
b1 $
b1000 &
b110001010 '
1J
1H
1D
1C
1<
17
0P
1R
0S
b0 T
1S
1P
0R
b1 T
b1 M
b1 )
#50000
1!
11
b1 L
b1010 X
b1 Y
b1000 Z
b1 (
0P
1R
0S
b0 T
1Q
b10 T
1.
b10 ,
0/
1#
0-
#50100
10
13
0Q
b0 T
1Q
b10 T
b111 T
b10 M
b10 )
b111 ,
#60000
0!
01
#70000
1!
11
b10 L
0[
b10 (
0Q
b0 T
1S
0R
b100 T
0#
1/
b100 ,
0.
#70100
00
03
1R
0S
b0 T
1S
0R
b100 T
#80000
0!
01
#90000
1!
11
b1010 V
1[
b0 U
b1010 N
b1010 *
1R
0S
b0 T
1S
0R
b100 T
#90100
b0 $
07
1R
0S
b0 T
1S
0R
b100 T
b1 M
b1 )
#100000
0!
01
#110000
1!
11
b1 L
b1 (
1R
0S
b0 T
1Q
b10 T
1.
b10 ,
0/
1#
#110100
10
13
0Q
b0 T
1Q
b10 T
b111 T
b0 M
b0 )
b111 ,
#120000
0!
01
#130000
1!
11
b0 L
0[
b0 (
0Q
b0 T
1S
1P
0R
b1 T
0#
1-
1/
b1 ,
0.
#130100
b100 $
b1 &
b10000010111 '
1K
1I
0H
1G
0D
0C
1A
1?
0<
15
0P
1R
0S
b0 T
1S
1P
0R
b1 T
b1 M
b1 )
#140000
0!
01
#150000
1!
11
b1 L
b111 X
b100 Y
b1 Z
1[
b10 U
b1 (
0P
1R
0S
b0 T
1Q
b10 T
b111 T
b10 M
b10 )
1.
b111 ,
0/
1#
0-
#160000
0!
01
#170000
1!
11
b10 L
0[
b10 (
0Q
b0 T
1S
0R
b100 T
0#
1/
b100 ,
0.
#170100
00
10
#180000
0!
01
#190000
1!
11
b1010 W
b111 V
1[
b0 U
b111 N
b1010 O
b1010 +
b111 *
1R
0S
b0 T
1S
0R
b100 T
#200000
0!
01
#210000
1!
11
#210100
b0 $
05
1R
0S
b0 T
1S
0R
b100 T
b1 M
b1 )
#220000
0!
01
#230000
1!
11
b1 L
b1 (
1R
0S
b0 T
1Q
b10 T
b111 T
b0 M
b0 )
1.
b111 ,
0/
1#
#240000
0!
01
#250000
1!
11
b0 L
0[
b0 (
0Q
b0 T
1S
1P
0R
b1 T
0#
1-
1/
b1 ,
0.
#250100
b1 $
b100 &
b101000011 '
0I
0G
1E
1C
0A
0?
1=
17
0P
1R
0S
b0 T
1S
1P
0R
b1 T
b1 M
b1 )
#260000
0!
01
#270000
1!
11
b1 L
b11 X
b1 Y
b100 Z
1[
b10 U
b1 (
0P
1R
0S
b0 T
1Q
b10 T
b111 T
b10 M
b10 )
1.
b111 ,
0/
1#
0-
#280000
0!
01
#290000
1!
11
b10 L
0[
b10 (
0Q
b0 T
1S
0R
b100 T
0#
1/
